Header Line 1:  Sample data for AY361
     -50.0000  -0.00264704
     -49.0000   -0.0120685
     -48.0000   -0.0188662
     -47.0000   -0.0212358
     -46.0000   -0.0183961
     -45.0000   -0.0108261
     -44.0000 -0.000201166
     -43.0000    0.0109683
     -42.0000    0.0199204
     -41.0000    0.0243129
     -40.0000    0.0228236
     -39.0000    0.0155267
     -38.0000   0.00394414
     -37.0000  -0.00925623
     -36.0000   -0.0208608
     -35.0000   -0.0278750
     -34.0000   -0.0282764
     -33.0000   -0.0215693
     -32.0000  -0.00899698
     -31.0000   0.00666024
     -30.0000    0.0216763
     -29.0000    0.0322378
     -28.0000    0.0353788
     -27.0000    0.0297698
     -26.0000    0.0161603
     -25.0000  -0.00265288
     -24.0000   -0.0223572
     -23.0000   -0.0380631
     -22.0000   -0.0454541
     -21.0000   -0.0418903
     -20.0000   -0.0272011
     -19.0000  -0.00395532
     -18.0000    0.0228955
     -17.0000    0.0469698
     -16.0000    0.0618349
     -15.0000    0.0625333
     -14.0000    0.0469276
     -13.0000    0.0165477
     -12.0000   -0.0232846
     -11.0000   -0.0641400
     -10.0000   -0.0958924
     -9.00000    -0.108614
     -8.00000   -0.0946003
     -7.00000   -0.0501119
     -6.00000    0.0235200
     -5.00000     0.119694
     -4.00000     0.227324
     -3.00000     0.332498
     -2.00000     0.420735
     -1.00000     0.479426
      0.00000     0.500000
      1.00000     0.479426
      2.00000     0.420735
      3.00000     0.332498
      4.00000     0.227324
      5.00000     0.119694
      6.00000    0.0235200
      7.00000   -0.0501119
      8.00000   -0.0946003
      9.00000    -0.108614
      10.0000   -0.0958924
      11.0000   -0.0641400
      12.0000   -0.0232846
      13.0000    0.0165477
      14.0000    0.0469276
      15.0000    0.0625333
      16.0000    0.0618349
      17.0000    0.0469698
      18.0000    0.0228955
      19.0000  -0.00395532
      20.0000   -0.0272011
      21.0000   -0.0418903
      22.0000   -0.0454541
      23.0000   -0.0380631
      24.0000   -0.0223572
      25.0000  -0.00265288
      26.0000    0.0161603
      27.0000    0.0297698
      28.0000    0.0353788
      29.0000    0.0322378
      30.0000    0.0216763
      31.0000   0.00666024
      32.0000  -0.00899698
      33.0000   -0.0215693
      34.0000   -0.0282764
      35.0000   -0.0278750
      36.0000   -0.0208608
      37.0000  -0.00925623
      38.0000   0.00394414
      39.0000    0.0155267
      40.0000    0.0228236
      41.0000    0.0243129
      42.0000    0.0199204
      43.0000    0.0109683
      44.0000 -0.000201166
      45.0000   -0.0108261
      46.0000   -0.0183961
      47.0000   -0.0212358
      48.0000   -0.0188662
      49.0000   -0.0120685
